<?xml version="1.0" encoding="UTF-8"?>
<svg width="39px" height="22px" viewBox="0 0 39 22" version="1.1" xmlns="http://www.w3.org/2000/svg" xmlns:xlink="http://www.w3.org/1999/xlink">
    <!-- Generator: Sketch 48.2 (47327) - http://www.bohemiancoding.com/sketch -->
    <title>vk</title>
    <desc>Created with Sketch.</desc>
    <defs></defs>
    <g id="Отбивки" stroke="none" stroke-width="1" fill="none" fill-rule="evenodd" transform="translate(-796.000000, -363.000000)">
        <path d="M834.659564,364.589286 C834.967601,365.446433 833.963147,367.415163 831.646171,370.495536 C831.324741,370.924109 830.889478,371.4933 830.340368,372.203125 C829.804651,372.886164 829.436351,373.368302 829.235457,373.649554 C829.034563,373.930805 828.830324,374.262275 828.622734,374.643973 C828.415143,375.025672 828.334787,375.306919 828.381662,375.487723 C828.428538,375.668528 828.51559,375.899552 828.642823,376.180804 C828.770056,376.462055 828.987688,376.749999 829.295725,377.044643 C829.603762,377.339287 829.985455,377.694194 830.440814,378.109375 C830.494386,378.136161 830.527868,378.162946 830.541261,378.189732 C832.429663,379.944205 833.708668,381.424101 834.378314,382.629464 C834.418493,382.696429 834.462019,382.780133 834.508894,382.88058 C834.55577,382.981027 834.602644,383.158481 834.649519,383.412946 C834.696395,383.667412 834.693046,383.895088 834.639475,384.095982 C834.585903,384.296876 834.418494,384.481026 834.137243,384.648438 C833.855991,384.815849 833.460906,384.899554 832.951975,384.899554 L827.809118,384.979911 C827.487687,385.046875 827.112691,385.013394 826.684118,384.879464 C826.255544,384.745535 825.907333,384.598215 825.639475,384.4375 L825.237689,384.196429 C824.835901,383.915177 824.367156,383.48661 823.831439,382.910714 C823.295722,382.334819 822.837021,381.815851 822.455323,381.353795 C822.073625,380.891739 821.665147,380.50335 821.229877,380.188616 C820.794607,379.873882 820.416262,379.770089 820.094832,379.877232 C820.054653,379.890625 820.001082,379.914062 819.934118,379.947545 C819.867153,379.981027 819.753315,380.078124 819.5926,380.238839 C819.431885,380.399554 819.287913,380.597097 819.16068,380.831473 C819.033447,381.065849 818.919609,381.41406 818.819162,381.876116 C818.718715,382.338172 818.675189,382.85714 818.688582,383.433036 C818.688582,383.63393 818.665145,383.81808 818.618269,383.985491 C818.571394,384.152903 818.521171,384.276785 818.4676,384.357143 L818.387243,384.457589 C818.14617,384.712055 817.791263,384.859375 817.322511,384.899554 L815.012243,384.899554 C814.061345,384.953125 813.083676,384.842635 812.079207,384.56808 C811.074738,384.293525 810.194166,383.938618 809.437466,383.503348 C808.680766,383.068078 807.99104,382.626118 807.368269,382.177455 C806.745498,381.728792 806.273405,381.343752 805.951975,381.022321 L805.449743,380.540179 C805.315813,380.406249 805.131663,380.205358 804.897287,379.9375 C804.662911,379.669642 804.184121,379.060273 803.460903,378.109375 C802.737685,377.158477 802.027871,376.147327 801.331439,375.075893 C800.635007,374.004459 799.814703,372.591527 798.870502,370.837054 C797.9263,369.082581 797.052425,367.26117 796.24885,365.372768 C796.168492,365.158481 796.128314,364.977679 796.128314,364.830357 C796.128314,364.683035 796.148403,364.575893 796.188582,364.508929 L796.268939,364.388393 C796.469833,364.133927 796.851526,364.006696 797.414028,364.006696 L802.918493,363.966518 C803.079208,363.993304 803.233224,364.03683 803.380546,364.097098 C803.527868,364.157366 803.63501,364.214285 803.701975,364.267857 L803.802421,364.328125 C804.016708,364.475447 804.177421,364.689731 804.284564,364.970982 C804.552423,365.640628 804.860455,366.333702 805.208671,367.050223 C805.556887,367.766745 805.831438,368.312498 806.032332,368.6875 L806.353761,369.270089 C806.742155,370.073665 807.117152,370.770086 807.478761,371.359375 C807.840369,371.948664 808.165143,372.407364 808.453091,372.735491 C808.741039,373.063618 809.018938,373.321428 809.286796,373.508929 C809.554655,373.69643 809.782331,373.790179 809.969832,373.790179 C810.157333,373.790179 810.338135,373.756697 810.512243,373.689732 C810.539028,373.676339 810.57251,373.642857 810.612689,373.589286 C810.652868,373.535714 810.733224,373.388394 810.853761,373.147321 C810.974297,372.906249 811.064698,372.59152 811.124966,372.203125 C811.185234,371.81473 811.248849,371.272325 811.315814,370.575893 C811.382779,369.879461 811.382779,369.042416 811.315814,368.064732 C811.289028,367.529015 811.228761,367.040181 811.135011,366.598214 C811.04126,366.156248 810.947511,365.848215 810.853761,365.674107 L810.733225,365.433036 C810.398402,364.977676 809.829211,364.689733 809.025636,364.569196 C808.851527,364.542411 808.885009,364.381698 809.126082,364.087054 C809.340369,363.832588 809.59483,363.631697 809.889475,363.484375 C810.5993,363.136159 812.19973,362.975446 814.690814,363.002232 C815.789034,363.015625 816.693043,363.102678 817.402868,363.263393 C817.670726,363.330357 817.895054,363.420758 818.075859,363.534598 C818.256663,363.648438 818.393939,363.809151 818.487689,364.016741 C818.58144,364.224331 818.651751,364.438615 818.698627,364.659598 C818.745502,364.880581 818.768939,365.185266 818.768939,365.573661 C818.768939,365.962056 818.762243,366.330355 818.74885,366.678571 C818.735457,367.026787 818.718716,367.498881 818.698627,368.094866 C818.678537,368.690851 818.668493,369.243301 818.668493,369.752232 C818.668493,369.899554 818.661796,370.180801 818.648403,370.595982 C818.63501,371.011163 818.631662,371.332588 818.638359,371.560268 C818.645055,371.787948 818.668492,372.05915 818.708671,372.373884 C818.74885,372.688618 818.825858,372.949776 818.939698,373.157366 C819.053538,373.364956 819.204206,373.529017 819.391707,373.649554 C819.49885,373.676339 819.612688,373.703125 819.733225,373.729911 C819.853761,373.756697 820.027867,373.683037 820.255546,373.508929 C820.483226,373.334821 820.737688,373.103796 821.018939,372.815848 C821.30019,372.5279 821.648401,372.079244 822.063582,371.469866 C822.478763,370.860488 822.934115,370.140629 823.429653,369.310268 C824.233229,367.917404 824.94974,366.410722 825.579207,364.790179 C825.632779,364.656249 825.699742,364.539063 825.7801,364.438616 C825.860457,364.338169 825.934117,364.267857 826.001082,364.227679 L826.081439,364.167411 L826.181886,364.117188 C826.222064,364.097098 826.309117,364.077009 826.443046,364.05692 C826.576975,364.03683 826.710903,364.033482 826.844832,364.046875 L832.630546,364.006696 C833.15287,363.939732 833.581437,363.956473 833.916261,364.05692 C834.251084,364.157367 834.458671,364.267857 834.539028,364.388393 L834.659564,364.589286 Z" id="vk" fill="#ffffff"></path>
    </g>
</svg>
